{
    "memory_ramsmp_float": {
        "mean": 15545.806,
        "median": 15551.5,
        "metric": "Bandwidth (MB/s)",
        "model": "platform_name",
        "results_list": [
            15543.08,
            15432.3,
            15630.2,
            15559.92,
            15642.73,
            15575.64,
            15469.03,
            15523.9,
            15573.57,
            15507.69
        ],
        "stddev": 62.52601125931514,
        "test_name": "RAMspeed/SMP Floating Point Test",
        "xlabel": "Test Run"
    },
    "memory_ramsmp_int": {
        "mean": 15892.027000000002,
        "median": 15903.315,
        "metric": "Bandwidth (MB/s)",
        "model": "platform_name",
        "results_list": [
            15794.04,
            15896.7,
            15784.11,
            15909.93,
            15966.14,
            15843.95,
            15830.56,
            15951.25,
            15970.42,
            15973.17
        ],
        "stddev": 70.29169567594714,
        "test_name": "RAMspeed/SMP Integer Test",
        "xlabel": "Test Run"
    },
    "net_bandwidth": {
        "mean": 9475.466666666667,
        "median": 9490.0,
        "metric": "Megabits",
        "model": "QLE3442-CU-CK",
        "results_list": [
            9423,
            9491,
            9493,
            9489,
            9493,
            9422,
            9491,
            9490,
            9489,
            9493,
            9438,
            9485,
            9493,
            9493,
            9455,
            9419,
            9491,
            9491,
            9493,
            9491,
            9418,
            9492,
            9489,
            9491,
            9490,
            9437,
            9491,
            9493,
            9491,
            9489,
            9418,
            9496,
            9491,
            9481,
            9493,
            9419,
            9490,
            9490,
            9483,
            9497,
            9428,
            9489,
            9494,
            9492,
            9449,
            9428,
            9494,
            9492,
            9489,
            9492,
            9472,
            9493,
            9494,
            9487,
            9496,
            9420,
            9484,
            9489,
            9496,
            9490,
            9452,
            9491,
            9489,
            9489,
            9493,
            9445,
            9499,
            9487,
            9493,
            9492,
            9397,
            9492,
            9483,
            9497,
            9453,
            9414,
            9491,
            9489,
            9492,
            9492,
            9407,
            9496,
            9489,
            9475,
            9494,
            9396,
            9486,
            9494,
            9490,
            9490,
            9409,
            9487,
            9495,
            9490,
            9486,
            9408,
            9494,
            9489,
            9495,
            9491,
            9422,
            9490,
            9494,
            9492,
            9442,
            9405,
            9491,
            9487,
            9494,
            9486,
            9416,
            9491,
            9492,
            9486,
            9494,
            9357,
            9494,
            9493,
            9490,
            9495,
            9411,
            9487,
            9493,
            9493,
            9493,
            9414,
            9492,
            9488,
            9494,
            9493,
            9436,
            9479,
            9490,
            9485,
            9475,
            9420,
            9492,
            9488,
            9494,
            9491,
            9397,
            9496,
            9490,
            9495,
            9492,
            9419,
            9484,
            9488,
            9499,
            9483,
            9457,
            9493,
            9489,
            9495,
            9493,
            9455,
            9496,
            9490,
            9485,
            9494,
            9405,
            9487,
            9494,
            9493,
            9461,
            9420,
            9490,
            9496,
            9488,
            9494,
            9431,
            9490,
            9494,
            9492,
            9492,
            9436,
            9492,
            9490,
            9489,
            9494,
            9412,
            9494,
            9481,
            9493,
            9489,
            9414,
            9488,
            9494,
            9493,
            9491,
            9398,
            9492,
            9491,
            9495,
            9450,
            9449,
            9486,
            9494,
            9497,
            9487,
            9418,
            9487,
            9494,
            9493,
            9491,
            9402,
            9491,
            9490,
            9494,
            9489,
            9410,
            9495,
            9483,
            9493,
            9495,
            9418,
            9492,
            9493,
            9489,
            9491,
            9424,
            9492,
            9490,
            9488,
            9480,
            9425,
            9493,
            9490,
            9493,
            9491,
            9414,
            9491,
            9494,
            9486,
            9492,
            9437,
            9494,
            9487,
            9499,
            9491,
            9468,
            9487,
            9494,
            9493,
            9491,
            9411,
            9491,
            9492,
            9474,
            9493,
            9376,
            9495,
            9490,
            9494,
            9469,
            9432,
            9491,
            9491,
            9492,
            9492,
            9409,
            9490,
            9494,
            9491,
            9491,
            9394,
            9493,
            9490,
            9493,
            9494,
            9410,
            9492,
            9491,
            9493,
            9491,
            9415,
            9490,
            9493,
            9494,
            9491,
            9411,
            9491,
            9492,
            9483,
            9453,
            9415,
            9493,
            9485,
            9489,
            9494,
            9396,
            9488,
            9491,
            9486,
            9479,
            9401,
            9492,
            9496,
            9490,
            9495
        ],
        "stddev": 30.47625669635663,
        "test_name": "iperf3 Bandwidth Test",
        "xlabel": "Time (seconds)"
    },
    "net_jitter": {
        "mean": 18.9235298,
        "median": 19.42315,
        "metric": "Jitter (\u00b5s)",
        "model": "QLE3442-CU-CK",
        "results_list": [
            10.588999999999999,
            13.790000000000001,
            14.7721,
            15.6325,
            21.5474,
            24.4379,
            29.786900000000003,
            26.9093,
            27.9715,
            33.0427,
            26.3754,
            25.9523,
            28.961299999999998,
            28.647599999999997,
            23.1306,
            23.053400000000003,
            18.9474,
            18.37,
            26.0748,
            18.816,
            15.5377,
            14.342799999999999,
            10.393899999999999,
            9.73757,
            10.4358,
            9.86488,
            18.177100000000003,
            15.141699999999998,
            16.5033,
            23.0735,
            25.4834,
            28.005,
            25.6628,
            24.602099999999997,
            29.2527,
            23.739199999999997,
            27.6741,
            26.292099999999998,
            22.336399999999998,
            21.5516,
            21.3478,
            22.6104,
            14.7956,
            10.599300000000001,
            9.260610000000002,
            9.39142,
            13.9362,
            9.818159999999999,
            11.0828,
            9.00395,
            11.0241,
            18.0034,
            13.698500000000001,
            17.5956,
            21.2802,
            23.1205,
            28.4599,
            26.4896,
            22.812700000000003,
            26.3502,
            26.0263,
            27.9934,
            25.0645,
            28.738500000000002,
            28.7803,
            25.8467,
            23.3703,
            14.325600000000001,
            12.1508,
            11.2355,
            20.5722,
            19.6358,
            13.7356,
            11.2683,
            15.6683,
            12.7012,
            15.0338,
            14.1659,
            19.4935,
            22.4332,
            26.4509,
            34.1216,
            22.7299,
            22.7165,
            27.5039,
            27.4846,
            29.164099999999998,
            32.523900000000005,
            28.4649,
            26.3556,
            24.2162,
            20.8172,
            13.753400000000001,
            14.681899999999999,
            10.473400000000002,
            9.38377,
            14.8081,
            10.9069,
            11.534,
            10.888200000000001,
            10.8611,
            14.8804,
            11.514,
            11.616299999999999,
            15.928899999999999,
            20.4464,
            20.7449,
            20.4756,
            23.6983,
            25.4981,
            19.6628,
            22.724500000000003,
            29.1569,
            27.124499999999998,
            22.630999999999997,
            17.8887,
            25.3153,
            26.0506,
            28.36,
            16.789599999999997,
            17.170399999999997,
            13.7744,
            10.7608,
            9.97034,
            8.24223,
            14.4287,
            13.2196,
            10.137,
            13.257700000000002,
            15.6046,
            21.013,
            20.0856,
            21.2444,
            22.8595,
            24.601499999999998,
            20.4368,
            20.5552,
            23.6697,
            23.701900000000002,
            26.0643,
            20.4598,
            23.142300000000002,
            14.3371,
            11.3095,
            11.8236,
            13.0576,
            12.9454,
            12.2501,
            10.5622,
            10.414200000000001,
            10.515699999999999,
            11.1121,
            14.678,
            14.1186,
            21.863799999999998,
            28.8252,
            19.0735,
            19.3528,
            17.1197,
            17.323700000000002,
            19.497799999999998,
            21.7753,
            22.2197,
            27.1356,
            22.3911,
            19.8003,
            14.6024,
            11.6279,
            14.2571,
            12.0595,
            17.1671,
            14.9785,
            10.9185,
            9.3204,
            10.8731,
            8.927890000000001,
            8.69752,
            10.7314,
            14.849599999999999,
            23.0731,
            29.8805,
            20.7854,
            22.7027,
            26.991899999999998,
            21.3834,
            21.2584,
            25.1453,
            23.169900000000002,
            24.4838,
            24.2648,
            16.1278,
            16.221200000000003,
            18.7197,
            11.5318,
            10.7659,
            10.3512,
            13.409600000000001,
            11.5381,
            10.4562,
            8.52204,
            9.06503,
            13.5176,
            11.2613,
            19.1437,
            23.8609,
            28.8976,
            23.3069,
            23.9271,
            26.008699999999997,
            25.8358,
            26.486,
            32.7294,
            25.0671,
            27.040100000000002,
            24.9015,
            18.0303,
            19.5129,
            25.2152,
            16.638099999999998,
            13.1687,
            12.954600000000001,
            12.182,
            10.766,
            9.172649999999999,
            9.37308,
            9.96828,
            10.5667,
            15.247399999999999,
            23.3714,
            23.5389,
            24.8034,
            28.4943,
            22.9764,
            27.838,
            26.2557,
            26.425,
            29.5128,
            27.9651,
            28.4038,
            23.2339,
            20.5201,
            17.720799999999997,
            12.9618,
            11.4979,
            9.405180000000001,
            9.247760000000001,
            11.0203,
            9.22946,
            9.25414,
            9.85628,
            10.2735,
            16.1737,
            20.600199999999997,
            22.2483,
            25.078,
            29.4325,
            30.4052,
            23.7187,
            27.271900000000002,
            26.5403,
            26.969199999999997,
            33.2427,
            26.3581,
            25.5601,
            20.6944,
            13.8807,
            12.3988,
            11.8231,
            9.82579,
            9.11207,
            13.2093,
            12.1772,
            9.66525,
            10.2471,
            7.95702,
            9.70417,
            14.8928,
            15.6327,
            23.5993,
            25.7112,
            25.4219,
            28.939200000000003,
            28.6308,
            27.037399999999998,
            24.134900000000002,
            26.200000000000003,
            29.5677,
            26.7533,
            21.371299999999998,
            20.5379,
            13.623800000000001,
            15.3983,
            15.4588,
            13.329699999999999,
            14.0782,
            16.5645,
            12.9965,
            12.8491,
            10.5181,
            10.2879
        ],
        "stddev": 6.770335620583761,
        "test_name": "iperf3 Jitter Test",
        "xlabel": "Time (seconds)"
    },
    "processor_pbzip2": {
        "mean": 18.95483045578003,
        "median": 18.892689108848572,
        "metric": "Time (seconds)",
        "model": "Intel(R) Xeon(R) CPU           E5645  @ 2.40GHz",
        "num_threads": 24,
        "results_list": [
            19.167596578598022,
            18.6670560836792,
            19.275474071502686,
            19.137725830078125,
            18.687687158584595,
            19.223909854888916,
            18.929741144180298,
            18.831537008285522,
            18.771939754486084,
            18.855637073516846
        ],
        "stddev": 0.21615617183366415,
        "test_name": "pbzip2 Compression Test",
        "xlabel": "Test Run"
    },
    "processor_tachyon": {
        "mean": 6.665498542785644,
        "median": 6.658719897270203,
        "metric": "Time (seconds)",
        "model": "Intel(R) Xeon(R) CPU           E5645  @ 2.40GHz",
        "num_threads": 24,
        "results_list": [
            6.6677024364471436,
            6.651005029678345,
            6.644080638885498,
            6.7060558795928955,
            6.707083463668823,
            6.653118371963501,
            6.647989273071289,
            6.640081167221069,
            6.664321422576904,
            6.673547744750977
        ],
        "stddev": 0.02284712299408024,
        "test_name": "Tachyon Ray Trace Test",
        "xlabel": "Test Run"
    },
    "storage_rand_read": {
        "mean": 39441.254237288136,
        "median": 39246.0,
        "metric": "IOP/s",
        "model": "Micron M500DC 240GB",
        "results_list": [
            42350,
            41730,
            41614,
            41674,
            41591,
            41486,
            41242,
            41112,
            40913,
            40458,
            40369,
            40430,
            40449,
            39841,
            39563,
            39478,
            39529,
            39504,
            39643,
            39485,
            39584,
            39461,
            38915,
            38974,
            39368,
            39599,
            39418,
            39172,
            39171,
            39259,
            38690,
            38660,
            38780,
            39337,
            38786,
            39077,
            39077,
            39108,
            37726,
            38049,
            38799,
            39369,
            38092,
            38548,
            38953,
            39185,
            38469,
            38186,
            38912,
            39487,
            38174,
            38356,
            38849,
            38944,
            38112,
            37883,
            38748,
            39246,
            38050
        ],
        "stddev": 1079.3488085960157,
        "test_name": "fio 4KB random read test",
        "xlabel": "Time (seconds)"
    },
    "storage_rand_readwrite": {
        "mean": 35383.13559322034,
        "median": 35346.0,
        "metric": "IOP/s",
        "model": "Micron M500DC 240GB",
        "results_list": [
            39876,
            33924,
            34074,
            35953,
            37062,
            35253,
            34197,
            35878,
            36724,
            35063,
            35306,
            36363,
            37004,
            34590,
            34082,
            36567,
            37140,
            35346,
            34543,
            35391,
            36575,
            34716,
            34635,
            35862,
            37168,
            34854,
            34324,
            36306,
            36472,
            35967,
            34137,
            35226,
            36890,
            35402,
            35158,
            35955,
            36263,
            34749,
            34263,
            36345,
            35812,
            34806,
            33167,
            35935,
            36035,
            33953,
            34109,
            36144,
            36382,
            32917,
            33197,
            35424,
            36248,
            34562,
            33332,
            35047,
            35976,
            34095,
            34861
        ],
        "stddev": 1230.5865413906356,
        "test_name": "fio 4KB random read/write test",
        "xlabel": "Time (seconds)"
    },
    "storage_seq_read": {
        "mean": 272366.71186440677,
        "median": 272240.0,
        "metric": "Bandwidth (KB)",
        "model": "Micron M500DC 240GB",
        "results_list": [
            273156,
            272240,
            272240,
            272240,
            272512,
            272240,
            272240,
            272240,
            272240,
            272240,
            272240,
            272240,
            272240,
            272240,
            272240,
            272240,
            272240,
            272240,
            272240,
            272240,
            272240,
            272240,
            272240,
            272512,
            272240,
            272240,
            272240,
            272240,
            272240,
            272240,
            272240,
            272240,
            272240,
            272240,
            272240,
            272240,
            272240,
            272240,
            272240,
            272240,
            272512,
            272512,
            272240,
            272240,
            272240,
            272512,
            272240,
            272240,
            272240,
            272240,
            272240,
            272240,
            272240,
            272240,
            272240,
            272240,
            273056,
            274432,
            274432
        ],
        "stddev": 422.6081669118473,
        "test_name": "fio 128KB sequential read test",
        "xlabel": "Time (seconds)"
    },
    "storage_seq_write": {
        "mean": 260310.25423728814,
        "median": 260320.0,
        "metric": "Bandwidth (KB)",
        "model": "Micron M500DC 240GB",
        "results_list": [
            261473,
            260928,
            260320,
            259808,
            260320,
            260576,
            260528,
            259808,
            260320,
            260576,
            260320,
            259808,
            260576,
            260320,
            260576,
            259808,
            260576,
            260320,
            260320,
            259808,
            260592,
            260320,
            260320,
            259808,
            260576,
            260320,
            260320,
            259808,
            260576,
            260320,
            260320,
            260576,
            259808,
            260320,
            260320,
            260576,
            260064,
            260320,
            260320,
            260576,
            259808,
            260320,
            260320,
            260576,
            259808,
            260576,
            260320,
            260576,
            260320,
            259808,
            260432,
            260464,
            260320,
            259808,
            260576,
            260320,
            260320,
            259808,
            260576
        ],
        "stddev": 326.783118520284,
        "test_name": "fio 128KB sequential write test",
        "xlabel": "Time (seconds)"
    }
}